…
let’s go look at the top players

``` r
df$percentiles = percentiles
df$pseudo_z_score = qnorm(percentiles)
```

``` r
df %>%
  arrange(-percentiles) %>%
  select(player, pos, block_pct, pseudo_z_score, z_score)
```

    ## # A tibble: 539 × 5
    ##    player            pos   block_pct pseudo_z_score z_score
    ##    <chr>             <chr>     <dbl>          <dbl>   <dbl>
    ##  1 Jaren Jackson Jr. C           9.6           3.68    7.14
    ##  2 Nic Claxton       C           7.1           3.53    6.63
    ##  3 Brook Lopez       C           6.7           3.50    6.54
    ##  4 Walker Kessler    C           8.6           3.31    5.94
    ##  5 Myles Turner      C           6.6           2.91    4.75
    ##  6 Evan Mobley       PF          4             2.72    4.25
    ##  7 Joel Embiid       C           4.6           2.65    4.06
    ##  8 Mitchell Robinson C           6.5           2.62    3.97
    ##  9 Anthony Davis     C           5.1           2.51    3.70
    ## 10 Onyeka Okongwu    C           4.9           2.40    3.42
    ## # … with 529 more rows
…
